{"failedCount":0,"prefixedPath":"src\/test\/resources\/features\/users\/4.pagination.feature","packageQualifiedName":"src.test.resources.features.users.4.pagination","loopIndex":-1,"relativePath":"src\/test\/resources\/features\/users\/4.pagination.feature","scenarioResults":[{"sectionIndex":0,"stepResults":[{"result":{"nanos":248563,"millis":0.248563,"status":"passed"},"step":{"background":true,"line":4,"prefix":"*","index":0,"text":"url 'https:\/\/reqres.in\/api\/'"}},{"result":{"nanos":184114,"millis":0.184114,"status":"passed"},"step":{"line":7,"prefix":"Given","index":0,"text":"path 'users?page=2'"}},{"result":{"nanos":46536072,"millis":46.536072,"status":"passed"},"step":{"line":8,"prefix":"When","index":1,"text":"method GET"},"stepLog":"17:53:35.190 request:\n1 > GET https:\/\/reqres.in\/api\/users?page=2\n1 > Host: reqres.in\n1 > Connection: Keep-Alive\n1 > User-Agent: Apache-HttpClient\/4.5.13 (Java\/17.0.12)\n1 > Accept-Encoding: gzip,deflate\n\n\n17:53:35.235 response time in milliseconds: 44\n1 < 200\n1 < Date: Wed, 09 Oct 2024 15:53:35 GMT\n1 < Content-Type: application\/json; charset=utf-8\n1 < Transfer-Encoding: chunked\n1 < Connection: keep-alive\n1 < Report-To: {\"group\":\"heroku-nel\",\"max_age\":3600,\"endpoints\":[{\"url\":\"https:\/\/nel.heroku.com\/reports?ts=1728311395&sid=c4c9725f-1ab0-44d8-820f-430df2718e11&s=jWVoqmZwXQEMiEdHoy%2FsjIMROvU0MMNKE1tDFRBOlds%3D\"}]}\n1 < Reporting-Endpoints: heroku-nel=https:\/\/nel.heroku.com\/reports?ts=1728311395&sid=c4c9725f-1ab0-44d8-820f-430df2718e11&s=jWVoqmZwXQEMiEdHoy%2FsjIMROvU0MMNKE1tDFRBOlds%3D\n1 < Nel: {\"report_to\":\"heroku-nel\",\"max_age\":3600,\"success_fraction\":0.005,\"failure_fraction\":0.05,\"response_headers\":[\"Via\"]}\n1 < X-Powered-By: Express\n1 < Access-Control-Allow-Origin: *\n1 < Etag: W\/\"406-ut0vzoCuidvyMf8arZpMpJ6ZRDw\"\n1 < Via: 1.1 vegur\n1 < Cache-Control: max-age=14400\n1 < CF-Cache-Status: HIT\n1 < Age: 6967\n1 < Vary: Accept-Encoding\n1 < Server: cloudflare\n1 < CF-RAY: 8cff8b5e592a6678-MAD\n{\"per_page\":6,\"total\":12,\"data\":[{\"last_name\":\"Lawson\",\"id\":7,\"avatar\":\"https:\\\/\\\/reqres.in\\\/img\\\/faces\\\/7-image.jpg\",\"first_name\":\"Michael\",\"email\":\"michael.lawson@reqres.in\"},{\"last_name\":\"Ferguson\",\"id\":8,\"avatar\":\"https:\\\/\\\/reqres.in\\\/img\\\/faces\\\/8-image.jpg\",\"first_name\":\"Lindsay\",\"email\":\"lindsay.ferguson@reqres.in\"},{\"last_name\":\"Funke\",\"id\":9,\"avatar\":\"https:\\\/\\\/reqres.in\\\/img\\\/faces\\\/9-image.jpg\",\"first_name\":\"Tobias\",\"email\":\"tobias.funke@reqres.in\"},{\"last_name\":\"Fields\",\"id\":10,\"avatar\":\"https:\\\/\\\/reqres.in\\\/img\\\/faces\\\/10-image.jpg\",\"first_name\":\"Byron\",\"email\":\"byron.fields@reqres.in\"},{\"last_name\":\"Edwards\",\"id\":11,\"avatar\":\"https:\\\/\\\/reqres.in\\\/img\\\/faces\\\/11-image.jpg\",\"first_name\":\"George\",\"email\":\"george.edwards@reqres.in\"},{\"last_name\":\"Howell\",\"id\":12,\"avatar\":\"https:\\\/\\\/reqres.in\\\/img\\\/faces\\\/12-image.jpg\",\"first_name\":\"Rachel\",\"email\":\"rachel.howell@reqres.in\"}],\"page\":2,\"total_pages\":2,\"support\":{\"text\":\"To keep ReqRes free, contributions towards server costs are appreciated!\",\"url\":\"https:\\\/\\\/reqres.in\\\/#support-heading\"}}\n"},{"result":{"nanos":29073,"millis":0.029073,"status":"passed"},"step":{"line":9,"prefix":"Then","index":2,"text":"status 200"}},{"result":{"nanos":1214527,"millis":1.214527,"status":"passed"},"step":{"line":10,"prefix":"And","index":3,"text":"match response.page == 2"}},{"result":{"nanos":647270,"millis":0.64727,"status":"passed"},"step":{"line":11,"prefix":"And","index":4,"text":"match response.per_page == 6"}},{"result":{"nanos":304626,"millis":0.304626,"status":"passed"},"step":{"line":12,"prefix":"And","index":5,"text":"match response.total_pages == 2"}},{"result":{"nanos":6465114,"millis":6.465114,"status":"passed"},"step":{"line":13,"prefix":"And","index":6,"text":"match response.data == '#[6]'"}}],"executorName":"main","line":6,"name":"Validate pagination on page 2","description":"","durationMillis":55.629359,"startTime":1728489215189,"failed":false,"refId":"[1:6]","endTime":1728489215245,"exampleIndex":-1},{"sectionIndex":1,"stepResults":[{"result":{"nanos":61071,"millis":0.061071,"status":"passed"},"step":{"background":true,"line":4,"prefix":"*","index":0,"text":"url 'https:\/\/reqres.in\/api\/'"}},{"result":{"nanos":423461,"millis":0.423461,"status":"passed"},"step":{"line":17,"prefix":"Given","index":0,"text":"path 'users?page=1'"}},{"result":{"nanos":42817037,"millis":42.817037,"status":"passed"},"step":{"line":18,"prefix":"When","index":1,"text":"method GET"},"stepLog":"17:53:35.250 request:\n1 > GET https:\/\/reqres.in\/api\/users?page=1\n1 > Host: reqres.in\n1 > Connection: Keep-Alive\n1 > User-Agent: Apache-HttpClient\/4.5.13 (Java\/17.0.12)\n1 > Accept-Encoding: gzip,deflate\n\n\n17:53:35.292 response time in milliseconds: 42\n1 < 200\n1 < Date: Wed, 09 Oct 2024 15:53:35 GMT\n1 < Content-Type: application\/json; charset=utf-8\n1 < Transfer-Encoding: chunked\n1 < Connection: keep-alive\n1 < Report-To: {\"group\":\"heroku-nel\",\"max_age\":3600,\"endpoints\":[{\"url\":\"https:\/\/nel.heroku.com\/reports?ts=1728343500&sid=c4c9725f-1ab0-44d8-820f-430df2718e11&s=Tyw%2FPb7nTRZCH4unjy6rO3zHAARjIjeX9TCM2iZ%2FJos%3D\"}]}\n1 < Reporting-Endpoints: heroku-nel=https:\/\/nel.heroku.com\/reports?ts=1728343500&sid=c4c9725f-1ab0-44d8-820f-430df2718e11&s=Tyw%2FPb7nTRZCH4unjy6rO3zHAARjIjeX9TCM2iZ%2FJos%3D\n1 < Nel: {\"report_to\":\"heroku-nel\",\"max_age\":3600,\"success_fraction\":0.005,\"failure_fraction\":0.05,\"response_headers\":[\"Via\"]}\n1 < X-Powered-By: Express\n1 < Access-Control-Allow-Origin: *\n1 < Etag: W\/\"3e4-2RLXvr5wTg9YQ6aH95CkYoFNuO8\"\n1 < Via: 1.1 vegur\n1 < Cache-Control: max-age=14400\n1 < CF-Cache-Status: HIT\n1 < Age: 4487\n1 < Vary: Accept-Encoding\n1 < Server: cloudflare\n1 < CF-RAY: 8cff8b5ebeec3153-MAD\n{\"per_page\":6,\"total\":12,\"data\":[{\"last_name\":\"Bluth\",\"id\":1,\"avatar\":\"https:\\\/\\\/reqres.in\\\/img\\\/faces\\\/1-image.jpg\",\"first_name\":\"George\",\"email\":\"george.bluth@reqres.in\"},{\"last_name\":\"Weaver\",\"id\":2,\"avatar\":\"https:\\\/\\\/reqres.in\\\/img\\\/faces\\\/2-image.jpg\",\"first_name\":\"Janet\",\"email\":\"janet.weaver@reqres.in\"},{\"last_name\":\"Wong\",\"id\":3,\"avatar\":\"https:\\\/\\\/reqres.in\\\/img\\\/faces\\\/3-image.jpg\",\"first_name\":\"Emma\",\"email\":\"emma.wong@reqres.in\"},{\"last_name\":\"Holt\",\"id\":4,\"avatar\":\"https:\\\/\\\/reqres.in\\\/img\\\/faces\\\/4-image.jpg\",\"first_name\":\"Eve\",\"email\":\"eve.holt@reqres.in\"},{\"last_name\":\"Morris\",\"id\":5,\"avatar\":\"https:\\\/\\\/reqres.in\\\/img\\\/faces\\\/5-image.jpg\",\"first_name\":\"Charles\",\"email\":\"charles.morris@reqres.in\"},{\"last_name\":\"Ramos\",\"id\":6,\"avatar\":\"https:\\\/\\\/reqres.in\\\/img\\\/faces\\\/6-image.jpg\",\"first_name\":\"Tracey\",\"email\":\"tracey.ramos@reqres.in\"}],\"page\":1,\"total_pages\":2,\"support\":{\"text\":\"To keep ReqRes free, contributions towards server costs are appreciated!\",\"url\":\"https:\\\/\\\/reqres.in\\\/#support-heading\"}}\n"},{"result":{"nanos":546077,"millis":0.546077,"status":"passed"},"step":{"line":19,"prefix":"Then","index":2,"text":"def page1Users = response.data"}},{"result":{"nanos":65281,"millis":0.065281,"status":"passed"},"step":{"line":21,"prefix":"Given","index":3,"text":"path 'users?page=2'"}},{"result":{"nanos":44902731,"millis":44.902731,"status":"passed"},"step":{"line":22,"prefix":"When","index":4,"text":"method GET"},"stepLog":"17:53:35.294 request:\n2 > GET https:\/\/reqres.in\/api\/users?page=2\n2 > Host: reqres.in\n2 > Connection: Keep-Alive\n2 > User-Agent: Apache-HttpClient\/4.5.13 (Java\/17.0.12)\n2 > Accept-Encoding: gzip,deflate\n\n\n17:53:35.338 response time in milliseconds: 43\n2 < 200\n2 < Date: Wed, 09 Oct 2024 15:53:35 GMT\n2 < Content-Type: application\/json; charset=utf-8\n2 < Transfer-Encoding: chunked\n2 < Connection: keep-alive\n2 < Report-To: {\"group\":\"heroku-nel\",\"max_age\":3600,\"endpoints\":[{\"url\":\"https:\/\/nel.heroku.com\/reports?ts=1728311395&sid=c4c9725f-1ab0-44d8-820f-430df2718e11&s=jWVoqmZwXQEMiEdHoy%2FsjIMROvU0MMNKE1tDFRBOlds%3D\"}]}\n2 < Reporting-Endpoints: heroku-nel=https:\/\/nel.heroku.com\/reports?ts=1728311395&sid=c4c9725f-1ab0-44d8-820f-430df2718e11&s=jWVoqmZwXQEMiEdHoy%2FsjIMROvU0MMNKE1tDFRBOlds%3D\n2 < Nel: {\"report_to\":\"heroku-nel\",\"max_age\":3600,\"success_fraction\":0.005,\"failure_fraction\":0.05,\"response_headers\":[\"Via\"]}\n2 < X-Powered-By: Express\n2 < Access-Control-Allow-Origin: *\n2 < Etag: W\/\"406-ut0vzoCuidvyMf8arZpMpJ6ZRDw\"\n2 < Via: 1.1 vegur\n2 < Cache-Control: max-age=14400\n2 < CF-Cache-Status: HIT\n2 < Age: 6967\n2 < Vary: Accept-Encoding\n2 < Server: cloudflare\n2 < CF-RAY: 8cff8b5efe7866ad-MAD\n{\"per_page\":6,\"total\":12,\"data\":[{\"last_name\":\"Lawson\",\"id\":7,\"avatar\":\"https:\\\/\\\/reqres.in\\\/img\\\/faces\\\/7-image.jpg\",\"first_name\":\"Michael\",\"email\":\"michael.lawson@reqres.in\"},{\"last_name\":\"Ferguson\",\"id\":8,\"avatar\":\"https:\\\/\\\/reqres.in\\\/img\\\/faces\\\/8-image.jpg\",\"first_name\":\"Lindsay\",\"email\":\"lindsay.ferguson@reqres.in\"},{\"last_name\":\"Funke\",\"id\":9,\"avatar\":\"https:\\\/\\\/reqres.in\\\/img\\\/faces\\\/9-image.jpg\",\"first_name\":\"Tobias\",\"email\":\"tobias.funke@reqres.in\"},{\"last_name\":\"Fields\",\"id\":10,\"avatar\":\"https:\\\/\\\/reqres.in\\\/img\\\/faces\\\/10-image.jpg\",\"first_name\":\"Byron\",\"email\":\"byron.fields@reqres.in\"},{\"last_name\":\"Edwards\",\"id\":11,\"avatar\":\"https:\\\/\\\/reqres.in\\\/img\\\/faces\\\/11-image.jpg\",\"first_name\":\"George\",\"email\":\"george.edwards@reqres.in\"},{\"last_name\":\"Howell\",\"id\":12,\"avatar\":\"https:\\\/\\\/reqres.in\\\/img\\\/faces\\\/12-image.jpg\",\"first_name\":\"Rachel\",\"email\":\"rachel.howell@reqres.in\"}],\"page\":2,\"total_pages\":2,\"support\":{\"text\":\"To keep ReqRes free, contributions towards server costs are appreciated!\",\"url\":\"https:\\\/\\\/reqres.in\\\/#support-heading\"}}\n"},{"result":{"nanos":151523,"millis":0.151523,"status":"passed"},"step":{"line":23,"prefix":"Then","index":5,"text":"def page2Users = response.data"}},{"result":{"nanos":16971188,"millis":16.971188,"status":"passed"},"step":{"line":25,"prefix":"*","index":6,"text":"assert !karate.match(page1Users, page2Users).pass"}}],"executorName":"main","line":16,"name":"Validate that users on page 1 and 2 are unique","description":"","durationMillis":105.938369,"startTime":1728489215248,"failed":false,"refId":"[2:16]","endTime":1728489215355,"exampleIndex":-1},{"sectionIndex":2,"stepResults":[{"result":{"nanos":56270,"millis":0.05627,"status":"passed"},"step":{"background":true,"line":4,"prefix":"*","index":0,"text":"url 'https:\/\/reqres.in\/api\/'"}},{"result":{"nanos":782933,"millis":0.782933,"status":"passed"},"step":{"line":28,"prefix":"Given","index":0,"text":"path 'users?page=999'"}},{"result":{"nanos":62067063,"millis":62.067063,"status":"passed"},"step":{"line":29,"prefix":"When","index":1,"text":"method GET"},"stepLog":"17:53:35.360 request:\n1 > GET https:\/\/reqres.in\/api\/users?page=999\n1 > Host: reqres.in\n1 > Connection: Keep-Alive\n1 > User-Agent: Apache-HttpClient\/4.5.13 (Java\/17.0.12)\n1 > Accept-Encoding: gzip,deflate\n\n\n17:53:35.420 response time in milliseconds: 60\n1 < 200\n1 < Date: Wed, 09 Oct 2024 15:53:35 GMT\n1 < Content-Type: application\/json; charset=utf-8\n1 < Transfer-Encoding: chunked\n1 < Connection: keep-alive\n1 < Report-To: {\"group\":\"heroku-nel\",\"max_age\":3600,\"endpoints\":[{\"url\":\"https:\/\/nel.heroku.com\/reports?ts=1728415537&sid=c4c9725f-1ab0-44d8-820f-430df2718e11&s=zGY2KfCydSFihQ6C2HBVv2nRcCCo5ask6inNogC6hCI%3D\"}]}\n1 < Reporting-Endpoints: heroku-nel=https:\/\/nel.heroku.com\/reports?ts=1728415537&sid=c4c9725f-1ab0-44d8-820f-430df2718e11&s=zGY2KfCydSFihQ6C2HBVv2nRcCCo5ask6inNogC6hCI%3D\n1 < Nel: {\"report_to\":\"heroku-nel\",\"max_age\":3600,\"success_fraction\":0.005,\"failure_fraction\":0.05,\"response_headers\":[\"Via\"]}\n1 < X-Powered-By: Express\n1 < Access-Control-Allow-Origin: *\n1 < Etag: W\/\"c7-cga74Ts\/eAcgbsa9NcrUEFyzPc0\"\n1 < Via: 1.1 vegur\n1 < Cache-Control: max-age=14400\n1 < CF-Cache-Status: HIT\n1 < Age: 2296\n1 < Vary: Accept-Encoding\n1 < Server: cloudflare\n1 < CF-RAY: 8cff8b5f68d6cbd8-MAD\n{\"per_page\":6,\"total\":12,\"data\":[],\"page\":999,\"total_pages\":2,\"support\":{\"text\":\"To keep ReqRes free, contributions towards server costs are appreciated!\",\"url\":\"https:\\\/\\\/reqres.in\\\/#support-heading\"}}\n"},{"result":{"nanos":7923,"millis":0.007923,"status":"passed"},"step":{"line":30,"prefix":"Then","index":2,"text":"status 200"}},{"result":{"nanos":676343,"millis":0.676343,"status":"passed"},"step":{"line":31,"prefix":"And","index":3,"text":"match response.data == '#[0]'"}}],"executorName":"main","line":27,"name":"Validate access to a non-existent page","description":"","durationMillis":63.590532,"startTime":1728489215357,"failed":false,"refId":"[3:27]","endTime":1728489215421,"exampleIndex":-1}],"callDepth":0,"name":"Validate pagination handling and the integrity of data across page","description":"","resultDate":"2024-10-09 05:53:35 p. m.","durationMillis":225.15826,"passedCount":3}